%!PS-Adobe-3.0 EPSF-3.0
%%Title: output_data/plot_cpu_fail_x1.eps
%%Creator: matplotlib version 2.1.1, http://matplotlib.org/
%%CreationDate: Fri Jan 12 12:58:04 2018
%%Orientation: portrait
%%BoundingBox: -414 36 1026 756
%%EndComments
%%BeginProlog
/mpldict 9 dict def
mpldict begin
/m { moveto } bind def
/l { lineto } bind def
/r { rlineto } bind def
/c { curveto } bind def
/cl { closepath } bind def
/box {
m
1 index 0 r
0 exch r
neg 0 r
cl
} bind def
/clipbox {
box
clip
newpath
} bind def
%!PS-Adobe-3.0 Resource-Font
%%Title: DejaVu Sans
%%Copyright: Copyright (c) 2003 by Bitstream, Inc. All Rights Reserved. Copyright (c) 2006 by Tavmjong Bah. All Rights Reserved. DejaVu changes are in public domain 
%%Creator: Converted from TrueType to type 3 by PPR
25 dict begin
/_d{bind def}bind def
/_m{moveto}_d
/_l{lineto}_d
/_cl{closepath eofill}_d
/_c{curveto}_d
/_sc{7 -1 roll{setcachedevice}{pop pop pop pop pop pop}ifelse}_d
/_e{exec}_d
/FontName /DejaVuSans def
/PaintType 0 def
/FontMatrix[.001 0 0 .001 0 0]def
/FontBBox[-1021 -463 1793 1232]def
/FontType 3 def
/Encoding [ /space /zero /one /two /three /four /five /seven /A /D /I /R /T /underscore /a /c /d /e /h /i /l /m /n /o /p /r /s /t /u /v ] def
/FontInfo 10 dict dup begin
/FamilyName (DejaVu Sans) def
/FullName (DejaVu Sans) def
/Notice (Copyright (c) 2003 by Bitstream, Inc. All Rights Reserved. Copyright (c) 2006 by Tavmjong Bah. All Rights Reserved. DejaVu changes are in public domain ) def
/Weight (Book) def
/Version (Version 2.35) def
/ItalicAngle 0.0 def
/isFixedPitch false def
/UnderlinePosition -130 def
/UnderlineThickness 90 def
end readonly def
/CharStrings 31 dict dup begin
/.notdef 0 def
/space{318 0 0 0 0 0 _sc
}_d
/zero{636 0 66 -13 570 742 _sc
318 664 _m
267 664 229 639 203 589 _c
177 539 165 464 165 364 _c
165 264 177 189 203 139 _c
229 89 267 64 318 64 _c
369 64 407 89 433 139 _c
458 189 471 264 471 364 _c
471 464 458 539 433 589 _c
407 639 369 664 318 664 _c
318 742 _m
399 742 461 709 505 645 _c
548 580 570 486 570 364 _c
570 241 548 147 505 83 _c
461 19 399 -13 318 -13 _c
236 -13 173 19 130 83 _c
87 147 66 241 66 364 _c
66 486 87 580 130 645 _c
173 709 236 742 318 742 _c
_cl}_d
/one{636 0 110 0 544 729 _sc
124 83 _m
285 83 _l
285 639 _l
110 604 _l
110 694 _l
284 729 _l
383 729 _l
383 83 _l
544 83 _l
544 0 _l
124 0 _l
124 83 _l
_cl}_d
/two{{636 0 73 0 536 742 _sc
192 83 _m
536 83 _l
536 0 _l
73 0 _l
73 83 _l
110 121 161 173 226 239 _c
290 304 331 346 348 365 _c
380 400 402 430 414 455 _c
426 479 433 504 433 528 _c
433 566 419 598 392 622 _c
365 646 330 659 286 659 _c
255 659 222 653 188 643 _c
154 632 117 616 78 594 _c
78 694 _l
118 710 155 722 189 730 _c
223 738 255 742 284 742 _c
}_e{359 742 419 723 464 685 _c
509 647 532 597 532 534 _c
532 504 526 475 515 449 _c
504 422 484 390 454 354 _c
446 344 420 317 376 272 _c
332 227 271 164 192 83 _c
_cl}_e}_d
/three{{636 0 76 -13 556 742 _sc
406 393 _m
453 383 490 362 516 330 _c
542 298 556 258 556 212 _c
556 140 531 84 482 45 _c
432 6 362 -13 271 -13 _c
240 -13 208 -10 176 -4 _c
144 1 110 10 76 22 _c
76 117 _l
103 101 133 89 166 81 _c
198 73 232 69 268 69 _c
330 69 377 81 409 105 _c
441 129 458 165 458 212 _c
458 254 443 288 413 312 _c
383 336 341 349 287 349 _c
}_e{202 349 _l
202 430 _l
291 430 _l
339 430 376 439 402 459 _c
428 478 441 506 441 543 _c
441 580 427 609 401 629 _c
374 649 336 659 287 659 _c
260 659 231 656 200 650 _c
169 644 135 635 98 623 _c
98 711 _l
135 721 170 729 203 734 _c
235 739 266 742 296 742 _c
370 742 429 725 473 691 _c
517 657 539 611 539 553 _c
539 513 527 479 504 451 _c
481 423 448 403 406 393 _c
_cl}_e}_d
/four{636 0 49 0 580 729 _sc
378 643 _m
129 254 _l
378 254 _l
378 643 _l
352 729 _m
476 729 _l
476 254 _l
580 254 _l
580 172 _l
476 172 _l
476 0 _l
378 0 _l
378 172 _l
49 172 _l
49 267 _l
352 729 _l
_cl}_d
/five{{636 0 77 -13 549 729 _sc
108 729 _m
495 729 _l
495 646 _l
198 646 _l
198 467 _l
212 472 227 476 241 478 _c
255 480 270 482 284 482 _c
365 482 429 459 477 415 _c
525 370 549 310 549 234 _c
549 155 524 94 475 51 _c
426 8 357 -13 269 -13 _c
238 -13 207 -10 175 -6 _c
143 -1 111 6 77 17 _c
77 116 _l
106 100 136 88 168 80 _c
199 72 232 69 267 69 _c
}_e{323 69 368 83 401 113 _c
433 143 450 183 450 234 _c
450 284 433 324 401 354 _c
368 384 323 399 267 399 _c
241 399 214 396 188 390 _c
162 384 135 375 108 363 _c
108 729 _l
_cl}_e}_d
/seven{636 0 82 0 551 729 _sc
82 729 _m
551 729 _l
551 687 _l
286 0 _l
183 0 _l
432 646 _l
82 646 _l
82 729 _l
_cl}_d
/A{684 0 8 0 676 729 _sc
342 632 _m
208 269 _l
476 269 _l
342 632 _l
286 729 _m
398 729 _l
676 0 _l
573 0 _l
507 187 _l
178 187 _l
112 0 _l
8 0 _l
286 729 _l
_cl}_d
/D{770 0 98 0 711 729 _sc
197 648 _m
197 81 _l
316 81 _l
416 81 490 103 537 149 _c
583 195 607 267 607 365 _c
607 463 583 534 537 580 _c
490 625 416 648 316 648 _c
197 648 _l
98 729 _m
301 729 _l
442 729 546 699 612 641 _c
678 582 711 490 711 365 _c
711 239 677 147 611 88 _c
545 29 441 0 301 0 _c
98 0 _l
98 729 _l
_cl}_d
/I{295 0 98 0 197 729 _sc
98 729 _m
197 729 _l
197 0 _l
98 0 _l
98 729 _l
_cl}_d
/R{{695 0 98 0 666 729 _sc
444 342 _m
465 334 486 319 506 296 _c
526 272 546 240 566 199 _c
666 0 _l
560 0 _l
467 187 _l
443 235 419 268 397 284 _c
374 300 343 308 304 308 _c
197 308 _l
197 0 _l
98 0 _l
98 729 _l
321 729 _l
404 729 466 711 507 677 _c
548 642 569 589 569 519 _c
569 473 558 434 537 404 _c
515 374 484 353 444 342 _c
197 648 _m
197 389 _l
321 389 _l
}_e{368 389 404 400 428 422 _c
452 444 465 476 465 519 _c
465 561 452 593 428 615 _c
404 637 368 648 321 648 _c
197 648 _l
_cl}_e}_d
/T{611 0 -2 0 614 729 _sc
-2 729 _m
614 729 _l
614 646 _l
355 646 _l
355 0 _l
256 0 _l
256 646 _l
-2 646 _l
-2 729 _l
_cl}_d
/underscore{500 0 -9 -235 510 -165 _sc
510 -165 _m
510 -235 _l
-9 -235 _l
-9 -165 _l
510 -165 _l
_cl}_d
/a{{613 0 60 -13 522 560 _sc
343 275 _m
270 275 220 266 192 250 _c
164 233 150 205 150 165 _c
150 133 160 107 181 89 _c
202 70 231 61 267 61 _c
317 61 357 78 387 114 _c
417 149 432 196 432 255 _c
432 275 _l
343 275 _l
522 312 _m
522 0 _l
432 0 _l
432 83 _l
411 49 385 25 355 10 _c
325 -5 287 -13 243 -13 _c
187 -13 142 2 109 33 _c
76 64 60 106 60 159 _c
}_e{60 220 80 266 122 298 _c
163 329 224 345 306 345 _c
432 345 _l
432 354 _l
432 395 418 427 391 450 _c
364 472 326 484 277 484 _c
245 484 215 480 185 472 _c
155 464 127 453 100 439 _c
100 522 _l
132 534 164 544 195 550 _c
226 556 256 560 286 560 _c
365 560 424 539 463 498 _c
502 457 522 395 522 312 _c
_cl}_e}_d
/c{{550 0 55 -13 488 560 _sc
488 526 _m
488 442 _l
462 456 437 466 411 473 _c
385 480 360 484 334 484 _c
276 484 230 465 198 428 _c
166 391 150 339 150 273 _c
150 206 166 154 198 117 _c
230 80 276 62 334 62 _c
360 62 385 65 411 72 _c
437 79 462 90 488 104 _c
488 21 _l
462 9 436 0 410 -5 _c
383 -10 354 -13 324 -13 _c
242 -13 176 12 128 64 _c
}_e{79 115 55 185 55 273 _c
55 362 79 432 128 483 _c
177 534 244 560 330 560 _c
358 560 385 557 411 551 _c
437 545 463 537 488 526 _c
_cl}_e}_d
/d{{635 0 55 -13 544 760 _sc
454 464 _m
454 760 _l
544 760 _l
544 0 _l
454 0 _l
454 82 _l
435 49 411 25 382 10 _c
353 -5 319 -13 279 -13 _c
213 -13 159 13 117 65 _c
75 117 55 187 55 273 _c
55 359 75 428 117 481 _c
159 533 213 560 279 560 _c
319 560 353 552 382 536 _c
411 520 435 496 454 464 _c
148 273 _m
148 207 161 155 188 117 _c
215 79 253 61 301 61 _c
}_e{348 61 385 79 413 117 _c
440 155 454 207 454 273 _c
454 339 440 390 413 428 _c
385 466 348 485 301 485 _c
253 485 215 466 188 428 _c
161 390 148 339 148 273 _c
_cl}_e}_d
/e{{615 0 55 -13 562 560 _sc
562 296 _m
562 252 _l
149 252 _l
153 190 171 142 205 110 _c
238 78 284 62 344 62 _c
378 62 412 66 444 74 _c
476 82 509 95 541 113 _c
541 28 _l
509 14 476 3 442 -3 _c
408 -9 373 -13 339 -13 _c
251 -13 182 12 131 62 _c
80 112 55 181 55 268 _c
55 357 79 428 127 481 _c
175 533 241 560 323 560 _c
397 560 455 536 498 489 _c
}_e{540 441 562 377 562 296 _c
472 322 _m
471 371 457 410 431 440 _c
404 469 368 484 324 484 _c
274 484 234 469 204 441 _c
174 413 156 373 152 322 _c
472 322 _l
_cl}_e}_d
/h{634 0 91 0 549 760 _sc
549 330 _m
549 0 _l
459 0 _l
459 327 _l
459 379 448 417 428 443 _c
408 469 378 482 338 482 _c
289 482 251 466 223 435 _c
195 404 181 362 181 309 _c
181 0 _l
91 0 _l
91 760 _l
181 760 _l
181 462 _l
202 494 227 519 257 535 _c
286 551 320 560 358 560 _c
420 560 468 540 500 501 _c
532 462 549 405 549 330 _c
_cl}_d
/i{278 0 94 0 184 760 _sc
94 547 _m
184 547 _l
184 0 _l
94 0 _l
94 547 _l
94 760 _m
184 760 _l
184 646 _l
94 646 _l
94 760 _l
_cl}_d
/l{278 0 94 0 184 760 _sc
94 760 _m
184 760 _l
184 0 _l
94 0 _l
94 760 _l
_cl}_d
/m{{974 0 91 0 889 560 _sc
520 442 _m
542 482 569 511 600 531 _c
631 550 668 560 711 560 _c
767 560 811 540 842 500 _c
873 460 889 403 889 330 _c
889 0 _l
799 0 _l
799 327 _l
799 379 789 418 771 444 _c
752 469 724 482 686 482 _c
639 482 602 466 575 435 _c
548 404 535 362 535 309 _c
535 0 _l
445 0 _l
445 327 _l
445 379 435 418 417 444 _c
398 469 369 482 331 482 _c
}_e{285 482 248 466 221 435 _c
194 404 181 362 181 309 _c
181 0 _l
91 0 _l
91 547 _l
181 547 _l
181 462 _l
201 495 226 520 255 536 _c
283 552 317 560 357 560 _c
397 560 430 550 458 530 _c
486 510 506 480 520 442 _c
_cl}_e}_d
/n{634 0 91 0 549 560 _sc
549 330 _m
549 0 _l
459 0 _l
459 327 _l
459 379 448 417 428 443 _c
408 469 378 482 338 482 _c
289 482 251 466 223 435 _c
195 404 181 362 181 309 _c
181 0 _l
91 0 _l
91 547 _l
181 547 _l
181 462 _l
202 494 227 519 257 535 _c
286 551 320 560 358 560 _c
420 560 468 540 500 501 _c
532 462 549 405 549 330 _c
_cl}_d
/o{612 0 55 -13 557 560 _sc
306 484 _m
258 484 220 465 192 427 _c
164 389 150 338 150 273 _c
150 207 163 156 191 118 _c
219 80 257 62 306 62 _c
354 62 392 80 420 118 _c
448 156 462 207 462 273 _c
462 337 448 389 420 427 _c
392 465 354 484 306 484 _c
306 560 _m
384 560 445 534 490 484 _c
534 433 557 363 557 273 _c
557 183 534 113 490 63 _c
445 12 384 -13 306 -13 _c
227 -13 165 12 121 63 _c
77 113 55 183 55 273 _c
55 363 77 433 121 484 _c
165 534 227 560 306 560 _c
_cl}_d
/p{{635 0 91 -207 580 560 _sc
181 82 _m
181 -207 _l
91 -207 _l
91 547 _l
181 547 _l
181 464 _l
199 496 223 520 252 536 _c
281 552 316 560 356 560 _c
422 560 476 533 518 481 _c
559 428 580 359 580 273 _c
580 187 559 117 518 65 _c
476 13 422 -13 356 -13 _c
316 -13 281 -5 252 10 _c
223 25 199 49 181 82 _c
487 273 _m
487 339 473 390 446 428 _c
418 466 381 485 334 485 _c
}_e{286 485 249 466 222 428 _c
194 390 181 339 181 273 _c
181 207 194 155 222 117 _c
249 79 286 61 334 61 _c
381 61 418 79 446 117 _c
473 155 487 207 487 273 _c
_cl}_e}_d
/r{411 0 91 0 411 560 _sc
411 463 _m
401 469 390 473 378 476 _c
366 478 353 480 339 480 _c
288 480 249 463 222 430 _c
194 397 181 350 181 288 _c
181 0 _l
91 0 _l
91 547 _l
181 547 _l
181 462 _l
199 495 224 520 254 536 _c
284 552 321 560 365 560 _c
371 560 378 559 386 559 _c
393 558 401 557 411 555 _c
411 463 _l
_cl}_d
/s{{521 0 54 -13 472 560 _sc
443 531 _m
443 446 _l
417 458 391 468 364 475 _c
336 481 308 485 279 485 _c
234 485 200 478 178 464 _c
156 450 145 430 145 403 _c
145 382 153 366 169 354 _c
185 342 217 330 265 320 _c
296 313 _l
360 299 405 279 432 255 _c
458 230 472 195 472 151 _c
472 100 452 60 412 31 _c
372 1 316 -13 246 -13 _c
216 -13 186 -10 154 -5 _c
}_e{122 0 89 8 54 20 _c
54 113 _l
87 95 120 82 152 74 _c
184 65 216 61 248 61 _c
290 61 323 68 346 82 _c
368 96 380 117 380 144 _c
380 168 371 187 355 200 _c
339 213 303 226 247 238 _c
216 245 _l
160 257 119 275 95 299 _c
70 323 58 356 58 399 _c
58 450 76 490 112 518 _c
148 546 200 560 268 560 _c
301 560 332 557 362 552 _c
391 547 418 540 443 531 _c
}_e{_cl}_e}_d
/t{392 0 27 0 368 702 _sc
183 702 _m
183 547 _l
368 547 _l
368 477 _l
183 477 _l
183 180 _l
183 135 189 106 201 94 _c
213 81 238 75 276 75 _c
368 75 _l
368 0 _l
276 0 _l
206 0 158 13 132 39 _c
106 65 93 112 93 180 _c
93 477 _l
27 477 _l
27 547 _l
93 547 _l
93 702 _l
183 702 _l
_cl}_d
/u{634 0 85 -13 543 560 _sc
85 216 _m
85 547 _l
175 547 _l
175 219 _l
175 167 185 129 205 103 _c
225 77 255 64 296 64 _c
344 64 383 79 411 110 _c
439 141 453 183 453 237 _c
453 547 _l
543 547 _l
543 0 _l
453 0 _l
453 84 _l
431 50 405 26 377 10 _c
348 -5 315 -13 277 -13 _c
214 -13 166 6 134 45 _c
101 83 85 140 85 216 _c
311 560 _m
311 560 _l
_cl}_d
/v{592 0 30 0 562 547 _sc
30 547 _m
125 547 _l
296 88 _l
467 547 _l
562 547 _l
357 0 _l
235 0 _l
30 547 _l
_cl}_d
end readonly def

/BuildGlyph
 {exch begin
 CharStrings exch
 2 copy known not{pop /.notdef}if
 true 3 1 roll get exec
 end}_d

/BuildChar {
 1 index /Encoding get exch get
 1 index /BuildGlyph get exec
}_d

FontName currentdict end definefont pop
%!PS-Adobe-3.0 Resource-Font
%%Title: DejaVu Sans Bold
%%Copyright: Copyright (c) 2003 by Bitstream, Inc. All Rights Reserved. Copyright (c) 2006 by Tavmjong Bah. All Rights Reserved. DejaVu changes are in public domain 
%%Creator: Converted from TrueType to type 3 by PPR
25 dict begin
/_d{bind def}bind def
/_m{moveto}_d
/_l{lineto}_d
/_cl{closepath eofill}_d
/_c{curveto}_d
/_sc{7 -1 roll{setcachedevice}{pop pop pop pop pop pop}ifelse}_d
/_e{exec}_d
/FontName /DejaVuSans-Bold def
/PaintType 0 def
/FontMatrix[.001 0 0 .001 0 0]def
/FontBBox[-1069 -415 1975 1174]def
/FontType 3 def
/Encoding [ /H /V /a /c /e /i /l /n /o /r /t /z ] def
/FontInfo 10 dict dup begin
/FamilyName (DejaVu Sans) def
/FullName (DejaVu Sans Bold) def
/Notice (Copyright (c) 2003 by Bitstream, Inc. All Rights Reserved. Copyright (c) 2006 by Tavmjong Bah. All Rights Reserved. DejaVu changes are in public domain ) def
/Weight (Bold) def
/Version (Version 2.35) def
/ItalicAngle 0.0 def
/isFixedPitch false def
/UnderlinePosition -130 def
/UnderlineThickness 90 def
end readonly def
/CharStrings 13 dict dup begin
/.notdef 0 def
/H{837 0 92 0 745 729 _sc
92 729 _m
280 729 _l
280 451 _l
557 451 _l
557 729 _l
745 729 _l
745 0 _l
557 0 _l
557 309 _l
280 309 _l
280 0 _l
92 0 _l
92 729 _l
_cl}_d
/V{774 0 5 0 769 729 _sc
5 729 _m
194 729 _l
387 191 _l
580 729 _l
769 729 _l
499 0 _l
275 0 _l
5 729 _l
_cl}_d
/a{{675 0 43 -13 596 560 _sc
329 246 _m
292 246 264 239 246 227 _c
228 215 219 197 219 173 _c
219 151 226 133 241 121 _c
256 108 277 102 303 102 _c
336 102 364 113 386 137 _c
408 161 420 190 420 226 _c
420 246 _l
329 246 _l
596 312 _m
596 0 _l
420 0 _l
420 81 _l
396 47 370 23 341 9 _c
311 -5 276 -13 234 -13 _c
177 -13 131 3 96 36 _c
60 68 43 111 43 164 _c
}_e{43 228 65 275 109 305 _c
153 335 222 350 317 350 _c
420 350 _l
420 364 _l
420 391 409 411 387 424 _c
365 437 331 444 285 444 _c
247 444 212 440 180 432 _c
148 424 118 413 91 399 _c
91 532 _l
128 541 165 548 203 553 _c
241 557 279 560 317 560 _c
415 560 486 540 530 501 _c
574 462 596 399 596 312 _c
_cl}_e}_d
/c{{593 0 43 -13 526 560 _sc
526 530 _m
526 387 _l
502 403 478 415 454 423 _c
430 431 405 435 380 435 _c
331 435 293 420 266 392 _c
238 364 225 324 225 273 _c
225 221 238 181 266 153 _c
293 125 331 111 380 111 _c
407 111 433 115 458 123 _c
482 131 505 143 526 159 _c
526 16 _l
498 6 470 -1 442 -6 _c
414 -10 386 -13 358 -13 _c
259 -13 182 12 126 62 _c
}_e{70 112 43 183 43 273 _c
43 363 70 433 126 484 _c
182 534 259 560 358 560 _c
386 560 414 557 442 552 _c
470 547 498 540 526 530 _c
_cl}_e}_d
/e{{678 0 43 -13 630 560 _sc
630 275 _m
630 225 _l
221 225 _l
225 184 240 153 266 133 _c
291 112 326 102 372 102 _c
408 102 446 107 485 118 _c
523 129 563 146 604 168 _c
604 33 _l
562 17 521 6 480 -1 _c
438 -9 397 -13 356 -13 _c
257 -13 180 12 125 62 _c
70 112 43 182 43 273 _c
43 362 70 432 124 483 _c
178 534 252 560 346 560 _c
432 560 500 534 552 482 _c
}_e{604 430 630 361 630 275 _c
450 333 _m
450 366 440 393 421 413 _c
401 433 376 444 345 444 _c
311 444 283 434 262 415 _c
241 396 228 369 223 333 _c
450 333 _l
_cl}_e}_d
/i{343 0 84 0 259 760 _sc
84 547 _m
259 547 _l
259 0 _l
84 0 _l
84 547 _l
84 760 _m
259 760 _l
259 617 _l
84 617 _l
84 760 _l
_cl}_d
/l{343 0 84 0 259 760 _sc
84 760 _m
259 760 _l
259 0 _l
84 0 _l
84 760 _l
_cl}_d
/n{712 0 84 0 634 560 _sc
634 333 _m
634 0 _l
458 0 _l
458 54 _l
458 255 _l
458 302 457 334 455 352 _c
453 370 449 383 444 392 _c
437 403 428 412 416 418 _c
404 424 390 428 376 428 _c
339 428 310 414 290 386 _c
269 358 259 319 259 269 _c
259 0 _l
84 0 _l
84 547 _l
259 547 _l
259 467 _l
285 499 312 522 342 537 _c
372 552 405 560 441 560 _c
504 560 552 540 585 502 _c
617 463 634 407 634 333 _c
_cl}_d
/o{687 0 43 -13 644 560 _sc
344 435 _m
305 435 275 421 255 393 _c
235 365 225 325 225 273 _c
225 220 235 180 255 152 _c
275 124 305 111 344 111 _c
382 111 411 124 431 152 _c
451 180 462 220 462 273 _c
462 325 451 365 431 393 _c
411 421 382 435 344 435 _c
344 560 _m
438 560 511 534 564 484 _c
617 433 644 363 644 273 _c
644 183 617 112 564 62 _c
511 12 438 -13 344 -13 _c
250 -13 176 12 123 62 _c
69 112 43 183 43 273 _c
43 363 69 433 123 484 _c
176 534 250 560 344 560 _c
_cl}_d
/r{493 0 84 0 490 560 _sc
490 398 _m
474 405 459 410 444 414 _c
429 417 414 419 399 419 _c
354 419 319 404 295 376 _c
271 347 259 306 259 252 _c
259 0 _l
84 0 _l
84 547 _l
259 547 _l
259 457 _l
281 493 306 519 336 535 _c
365 551 400 560 441 560 _c
447 560 453 559 460 559 _c
466 559 476 558 490 556 _c
490 398 _l
_cl}_d
/t{478 0 13 0 455 702 _sc
275 702 _m
275 547 _l
455 547 _l
455 422 _l
275 422 _l
275 190 _l
275 164 280 147 290 138 _c
300 129 320 125 350 125 _c
440 125 _l
440 0 _l
290 0 _l
221 0 172 14 143 43 _c
114 71 100 120 100 190 _c
100 422 _l
13 422 _l
13 547 _l
100 547 _l
100 702 _l
275 702 _l
_cl}_d
/z{582 0 45 0 534 547 _sc
57 547 _m
534 547 _l
534 425 _l
246 125 _l
534 125 _l
534 0 _l
45 0 _l
45 122 _l
333 422 _l
57 422 _l
57 547 _l
_cl}_d
end readonly def

/BuildGlyph
 {exch begin
 CharStrings exch
 2 copy known not{pop /.notdef}if
 true 3 1 roll get exec
 end}_d

/BuildChar {
 1 index /Encoding get exch get
 1 index /BuildGlyph get exec
}_d

FontName currentdict end definefont pop
end
%%EndProlog
mpldict begin
-414 36 translate
1440 720 0 0 clipbox
gsave
0 0 m
1440 0 l
1440 720 l
0 720 l
cl
1.000 setgray
fill
grestore
gsave
180 90 m
1296 90 l
1296 633.6 l
180 633.6 l
cl
1.000 setgray
fill
grestore
0.800 setlinewidth
1 setlinejoin
2 setlinecap
[] 0 setdash
0.650 setgray
gsave
1116 543.6 180 90 clipbox
180 90 m
180 633.6 l
stroke
grestore
0 setlinecap
0.000 setgray
gsave
/o {
gsave
newpath
translate
0.8 setlinewidth
1 setlinejoin
0 setlinecap
0 0 m
0 -3.5 l

gsave
0.000 setgray
fill
grestore
stroke
grestore
} bind def
180 90 o
grestore
/DejaVuSans findfont
20.000 scalefont
setfont
gsave
173.640625 67.796875 translate
0.000000 rotate
0.000000 0.000000 m /zero glyphshow
grestore
2 setlinecap
0.650 setgray
gsave
1116 543.6 180 90 clipbox
319.5 90 m
319.5 633.6 l
stroke
grestore
0 setlinecap
0.000 setgray
gsave
/o {
gsave
newpath
translate
0.8 setlinewidth
1 setlinejoin
0 setlinecap
0 0 m
0 -3.5 l

gsave
0.000 setgray
fill
grestore
stroke
grestore
} bind def
319.5 90 o
grestore
gsave
313.140625 67.796875 translate
0.000000 rotate
0.000000 0.000000 m /five glyphshow
grestore
2 setlinecap
0.650 setgray
gsave
1116 543.6 180 90 clipbox
459 90 m
459 633.6 l
stroke
grestore
0 setlinecap
0.000 setgray
gsave
/o {
gsave
newpath
translate
0.8 setlinewidth
1 setlinejoin
0 setlinecap
0 0 m
0 -3.5 l

gsave
0.000 setgray
fill
grestore
stroke
grestore
} bind def
459 90 o
grestore
gsave
446.281250 67.796875 translate
0.000000 rotate
0.000000 0.000000 m /one glyphshow
12.724609 0.000000 m /zero glyphshow
grestore
2 setlinecap
0.650 setgray
gsave
1116 543.6 180 90 clipbox
598.5 90 m
598.5 633.6 l
stroke
grestore
0 setlinecap
0.000 setgray
gsave
/o {
gsave
newpath
translate
0.8 setlinewidth
1 setlinejoin
0 setlinecap
0 0 m
0 -3.5 l

gsave
0.000 setgray
fill
grestore
stroke
grestore
} bind def
598.5 90 o
grestore
gsave
585.781250 67.796875 translate
0.000000 rotate
0.000000 0.000000 m /one glyphshow
12.724609 0.000000 m /five glyphshow
grestore
2 setlinecap
0.650 setgray
gsave
1116 543.6 180 90 clipbox
738 90 m
738 633.6 l
stroke
grestore
0 setlinecap
0.000 setgray
gsave
/o {
gsave
newpath
translate
0.8 setlinewidth
1 setlinejoin
0 setlinecap
0 0 m
0 -3.5 l

gsave
0.000 setgray
fill
grestore
stroke
grestore
} bind def
738 90 o
grestore
gsave
725.281250 67.796875 translate
0.000000 rotate
0.000000 0.000000 m /two glyphshow
12.724609 0.000000 m /zero glyphshow
grestore
2 setlinecap
0.650 setgray
gsave
1116 543.6 180 90 clipbox
877.5 90 m
877.5 633.6 l
stroke
grestore
0 setlinecap
0.000 setgray
gsave
/o {
gsave
newpath
translate
0.8 setlinewidth
1 setlinejoin
0 setlinecap
0 0 m
0 -3.5 l

gsave
0.000 setgray
fill
grestore
stroke
grestore
} bind def
877.5 90 o
grestore
gsave
864.781250 67.796875 translate
0.000000 rotate
0.000000 0.000000 m /two glyphshow
12.724609 0.000000 m /five glyphshow
grestore
2 setlinecap
0.650 setgray
gsave
1116 543.6 180 90 clipbox
1017 90 m
1017 633.6 l
stroke
grestore
0 setlinecap
0.000 setgray
gsave
/o {
gsave
newpath
translate
0.8 setlinewidth
1 setlinejoin
0 setlinecap
0 0 m
0 -3.5 l

gsave
0.000 setgray
fill
grestore
stroke
grestore
} bind def
1017 90 o
grestore
gsave
1004.281250 67.796875 translate
0.000000 rotate
0.000000 0.000000 m /three glyphshow
12.724609 0.000000 m /zero glyphshow
grestore
2 setlinecap
0.650 setgray
gsave
1116 543.6 180 90 clipbox
1156.5 90 m
1156.5 633.6 l
stroke
grestore
0 setlinecap
0.000 setgray
gsave
/o {
gsave
newpath
translate
0.8 setlinewidth
1 setlinejoin
0 setlinecap
0 0 m
0 -3.5 l

gsave
0.000 setgray
fill
grestore
stroke
grestore
} bind def
1156.5 90 o
grestore
gsave
1143.781250 67.796875 translate
0.000000 rotate
0.000000 0.000000 m /three glyphshow
12.724609 0.000000 m /five glyphshow
grestore
2 setlinecap
0.650 setgray
gsave
1116 543.6 180 90 clipbox
1296 90 m
1296 633.6 l
stroke
grestore
0 setlinecap
0.000 setgray
gsave
/o {
gsave
newpath
translate
0.8 setlinewidth
1 setlinejoin
0 setlinecap
0 0 m
0 -3.5 l

gsave
0.000 setgray
fill
grestore
stroke
grestore
} bind def
1296 90 o
grestore
gsave
1283.281250 67.796875 translate
0.000000 rotate
0.000000 0.000000 m /four glyphshow
12.724609 0.000000 m /zero glyphshow
grestore
gsave
656.851562 44.437500 translate
0.000000 rotate
0.000000 0.000000 m /T glyphshow
12.216797 0.000000 m /i glyphshow
17.773438 0.000000 m /m glyphshow
37.255859 0.000000 m /e glyphshow
49.560547 0.000000 m /space glyphshow
55.917969 0.000000 m /i glyphshow
61.474609 0.000000 m /n glyphshow
74.150391 0.000000 m /space glyphshow
80.507812 0.000000 m /s glyphshow
90.927734 0.000000 m /e glyphshow
103.232422 0.000000 m /c glyphshow
114.228516 0.000000 m /o glyphshow
126.464844 0.000000 m /n glyphshow
139.140625 0.000000 m /d glyphshow
151.835938 0.000000 m /s glyphshow
grestore
2 setlinecap
0.650 setgray
gsave
1116 543.6 180 90 clipbox
180 102.221014 m
1296 102.221014 l
stroke
grestore
0 setlinecap
0.000 setgray
gsave
/o {
gsave
newpath
translate
0.8 setlinewidth
1 setlinejoin
0 setlinecap
0 0 m
-3.5 0 l

gsave
0.000 setgray
fill
grestore
stroke
grestore
} bind def
180 102.221 o
grestore
gsave
147.562500 94.619451 translate
0.000000 rotate
0.000000 0.000000 m /five glyphshow
12.724609 0.000000 m /zero glyphshow
grestore
2 setlinecap
0.650 setgray
gsave
1116 543.6 180 90 clipbox
180 164.6614 m
1296 164.6614 l
stroke
grestore
0 setlinecap
0.000 setgray
gsave
/o {
gsave
newpath
translate
0.8 setlinewidth
1 setlinejoin
0 setlinecap
0 0 m
-3.5 0 l

gsave
0.000 setgray
fill
grestore
stroke
grestore
} bind def
180 164.661 o
grestore
gsave
147.562500 157.059838 translate
0.000000 rotate
0.000000 0.000000 m /seven glyphshow
12.724609 0.000000 m /five glyphshow
grestore
2 setlinecap
0.650 setgray
gsave
1116 543.6 180 90 clipbox
180 227.101787 m
1296 227.101787 l
stroke
grestore
0 setlinecap
0.000 setgray
gsave
/o {
gsave
newpath
translate
0.8 setlinewidth
1 setlinejoin
0 setlinecap
0 0 m
-3.5 0 l

gsave
0.000 setgray
fill
grestore
stroke
grestore
} bind def
180 227.102 o
grestore
gsave
134.843750 219.500225 translate
0.000000 rotate
0.000000 0.000000 m /one glyphshow
12.724609 0.000000 m /zero glyphshow
25.449219 0.000000 m /zero glyphshow
grestore
2 setlinecap
0.650 setgray
gsave
1116 543.6 180 90 clipbox
180 289.542174 m
1296 289.542174 l
stroke
grestore
0 setlinecap
0.000 setgray
gsave
/o {
gsave
newpath
translate
0.8 setlinewidth
1 setlinejoin
0 setlinecap
0 0 m
-3.5 0 l

gsave
0.000 setgray
fill
grestore
stroke
grestore
} bind def
180 289.542 o
grestore
gsave
134.843750 281.940611 translate
0.000000 rotate
0.000000 0.000000 m /one glyphshow
12.724609 0.000000 m /two glyphshow
25.449219 0.000000 m /five glyphshow
grestore
2 setlinecap
0.650 setgray
gsave
1116 543.6 180 90 clipbox
180 351.98256 m
1296 351.98256 l
stroke
grestore
0 setlinecap
0.000 setgray
gsave
/o {
gsave
newpath
translate
0.8 setlinewidth
1 setlinejoin
0 setlinecap
0 0 m
-3.5 0 l

gsave
0.000 setgray
fill
grestore
stroke
grestore
} bind def
180 351.983 o
grestore
gsave
134.843750 344.380998 translate
0.000000 rotate
0.000000 0.000000 m /one glyphshow
12.724609 0.000000 m /five glyphshow
25.449219 0.000000 m /zero glyphshow
grestore
2 setlinecap
0.650 setgray
gsave
1116 543.6 180 90 clipbox
180 414.422947 m
1296 414.422947 l
stroke
grestore
0 setlinecap
0.000 setgray
gsave
/o {
gsave
newpath
translate
0.8 setlinewidth
1 setlinejoin
0 setlinecap
0 0 m
-3.5 0 l

gsave
0.000 setgray
fill
grestore
stroke
grestore
} bind def
180 414.423 o
grestore
gsave
134.843750 406.821385 translate
0.000000 rotate
0.000000 0.000000 m /one glyphshow
12.724609 0.000000 m /seven glyphshow
25.449219 0.000000 m /five glyphshow
grestore
2 setlinecap
0.650 setgray
gsave
1116 543.6 180 90 clipbox
180 476.863334 m
1296 476.863334 l
stroke
grestore
0 setlinecap
0.000 setgray
gsave
/o {
gsave
newpath
translate
0.8 setlinewidth
1 setlinejoin
0 setlinecap
0 0 m
-3.5 0 l

gsave
0.000 setgray
fill
grestore
stroke
grestore
} bind def
180 476.863 o
grestore
gsave
134.843750 469.261771 translate
0.000000 rotate
0.000000 0.000000 m /two glyphshow
12.724609 0.000000 m /zero glyphshow
25.449219 0.000000 m /zero glyphshow
grestore
2 setlinecap
0.650 setgray
gsave
1116 543.6 180 90 clipbox
180 539.303721 m
1296 539.303721 l
stroke
grestore
0 setlinecap
0.000 setgray
gsave
/o {
gsave
newpath
translate
0.8 setlinewidth
1 setlinejoin
0 setlinecap
0 0 m
-3.5 0 l

gsave
0.000 setgray
fill
grestore
stroke
grestore
} bind def
180 539.304 o
grestore
gsave
134.843750 531.702158 translate
0.000000 rotate
0.000000 0.000000 m /two glyphshow
12.724609 0.000000 m /two glyphshow
25.449219 0.000000 m /five glyphshow
grestore
2 setlinecap
0.650 setgray
gsave
1116 543.6 180 90 clipbox
180 601.744107 m
1296 601.744107 l
stroke
grestore
0 setlinecap
0.000 setgray
gsave
/o {
gsave
newpath
translate
0.8 setlinewidth
1 setlinejoin
0 setlinecap
0 0 m
-3.5 0 l

gsave
0.000 setgray
fill
grestore
stroke
grestore
} bind def
180 601.744 o
grestore
gsave
134.843750 594.142545 translate
0.000000 rotate
0.000000 0.000000 m /two glyphshow
12.724609 0.000000 m /five glyphshow
25.449219 0.000000 m /zero glyphshow
grestore
gsave
126.687500 322.503125 translate
90.000000 rotate
0.000000 0.000000 m /A glyphshow
13.681641 0.000000 m /m glyphshow
33.164062 0.000000 m /o glyphshow
45.400391 0.000000 m /u glyphshow
58.076172 0.000000 m /n glyphshow
70.751953 0.000000 m /t glyphshow
grestore
1.500 setlinewidth
[5.55 2.4] 0 setdash
0.800 0.475 0.655 setrgbcolor
gsave
1116 543.6 180 90 clipbox
180 189.637555 m
207.9 189.637555 l
235.8 189.637555 l
263.7 189.637555 l
291.6 189.637555 l
319.5 189.637555 l
347.4 189.637555 l
375.3 189.637555 l
403.2 189.637555 l
431.1 189.637555 l
459 189.637555 l
486.9 189.637555 l
514.8 189.637555 l
542.7 189.637555 l
570.6 189.637555 l
598.5 189.637555 l
626.4 189.637555 l
654.3 189.637555 l
682.2 189.637555 l
710.1 189.637555 l
738 189.637555 l
765.9 189.637555 l
793.8 189.637555 l
821.7 189.637555 l
849.6 189.637555 l
877.5 189.637555 l
905.4 189.637555 l
933.3 189.637555 l
961.2 189.637555 l
989.1 189.637555 l
1017 189.637555 l
1044.9 189.637555 l
1072.8 189.637555 l
1100.7 189.637555 l
1128.6 189.637555 l
1156.5 189.637555 l
1184.4 189.637555 l
1212.3 189.637555 l
1240.2 189.637555 l
1268.1 189.637555 l
1296 189.637555 l
stroke
grestore
0.000 0.447 0.698 setrgbcolor
gsave
1116 543.6 180 90 clipbox
180 476.863334 m
207.9 476.863334 l
235.8 476.863334 l
263.7 476.863334 l
291.6 476.863334 l
319.5 476.863334 l
347.4 476.863334 l
375.3 476.863334 l
403.2 476.863334 l
431.1 476.863334 l
459 476.863334 l
486.9 476.863334 l
514.8 476.863334 l
542.7 476.863334 l
570.6 476.863334 l
598.5 476.863334 l
626.4 476.863334 l
654.3 476.863334 l
682.2 476.863334 l
710.1 476.863334 l
738 476.863334 l
765.9 476.863334 l
793.8 476.863334 l
821.7 476.863334 l
849.6 476.863334 l
877.5 476.863334 l
905.4 476.863334 l
933.3 476.863334 l
961.2 476.863334 l
989.1 476.863334 l
1017 476.863334 l
1044.9 476.863334 l
1072.8 476.863334 l
1100.7 476.863334 l
1128.6 476.863334 l
1156.5 476.863334 l
1184.4 476.863334 l
1212.3 476.863334 l
1240.2 476.863334 l
1268.1 476.863334 l
1296 476.863334 l
stroke
grestore
2 setlinecap
[] 0 setdash
0.800 0.475 0.655 setrgbcolor
gsave
1116 543.6 180 90 clipbox
180 170.905439 m
193.823255 183.393516 l
221.725204 217.111325 l
249.636027 227.101787 l
277.573224 227.101787 l
305.567395 204.623248 l
333.476182 227.101787 l
361.397647 222.106556 l
389.316718 122.201937 l
417.232663 114.709091 l
445.474809 135.938822 l
473.33062 120.95313 l
501.240452 125.948361 l
529.170425 119.704322 l
557.091153 129.694784 l
585.523848 132.192399 l
613.437046 119.704322 l
641.355272 122.201937 l
669.278015 125.948361 l
697.197112 129.694784 l
725.413642 130.943591 l
753.337223 129.694784 l
781.255396 132.192399 l
809.186486 134.690015 l
837.103342 128.445976 l
865.426063 132.192399 l
893.343138 142.182861 l
921.267584 130.943591 l
949.196991 127.197168 l
977.119847 127.197168 l
1005.308339 138.436438 l
1033.232971 142.182861 l
1061.150253 130.943591 l
1089.078949 144.680477 l
1117.010645 137.18763 l
1145.290614 143.431669 l
1173.206292 137.18763 l
1201.133745 135.938822 l
1229.056827 135.938822 l
1257.001361 143.431669 l
1285.286671 139.685246 l
stroke
grestore
1.000 setlinewidth
0 setlinejoin
0 setlinecap
gsave
1116 543.6 180 90 clipbox
/o {
gsave
newpath
translate
1.0 setlinewidth
0 setlinejoin
0 setlinecap
-0 -5 m
5 5 l
-5 5 l
cl

gsave
0.800 0.475 0.655 setrgbcolor
fill
grestore
stroke
grestore
} bind def
180 170.905 o
193.823 183.394 o
221.725 217.111 o
249.636 227.102 o
277.573 227.102 o
305.567 204.623 o
333.476 227.102 o
361.398 222.107 o
389.317 122.202 o
417.233 114.709 o
445.475 135.939 o
473.331 120.953 o
501.24 125.948 o
529.17 119.704 o
557.091 129.695 o
585.524 132.192 o
613.437 119.704 o
641.355 122.202 o
669.278 125.948 o
697.197 129.695 o
725.414 130.944 o
753.337 129.695 o
781.255 132.192 o
809.186 134.69 o
837.103 128.446 o
865.426 132.192 o
893.343 142.183 o
921.268 130.944 o
949.197 127.197 o
977.12 127.197 o
1005.31 138.436 o
1033.23 142.183 o
1061.15 130.944 o
1089.08 144.68 o
1117.01 137.188 o
1145.29 143.432 o
1173.21 137.188 o
1201.13 135.939 o
1229.06 135.939 o
1257 143.432 o
1285.29 139.685 o
grestore
1.500 setlinewidth
1 setlinejoin
2 setlinecap
0.000 0.447 0.698 setrgbcolor
gsave
1116 543.6 180 90 clipbox
180 608.890909 m
207.665102 445.403082 l
230.517125 223.165957 l
253.667544 148.427849 l
278.470017 121.892308 l
301.127785 199.612931 l
323.884034 175.135875 l
350.902879 186.206631 l
373.428793 337.022019 l
395.794011 327.733861 l
418.299637 358.407377 l
440.752607 448.461238 l
463.129107 351.010751 l
485.576875 314.165203 l
508.287751 367.674804 l
530.783872 352.848072 l
553.181431 315.253377 l
575.648676 449.217228 l
598.054271 285.868244 l
620.469957 386.606704 l
642.916368 324.113643 l
665.366783 336.570987 l
687.760052 349.479413 l
710.146131 377.001886 l
732.622488 337.814275 l
755.102432 377.960434 l
777.503397 339.69433 l
800.002225 362.623514 l
822.59215 398.343786 l
844.994233 368.084175 l
867.454373 368.215225 l
889.866713 391.883479 l
912.2342 359.489568 l
934.62377 352.434704 l
956.990765 350.5268 l
979.372167 371.172315 l
1001.807855 386.8594 l
1024.254266 437.519734 l
1046.750453 425.970173 l
1069.167063 323.950835 l
1091.684796 462.078237 l
1114.276863 402.555839 l
1136.700285 457.326698 l
1159.065077 436.881406 l
1181.470938 436.645356 l
1204.006857 391.131222 l
1226.481485 374.538925 l
1248.912484 414.121323 l
1271.318212 423.712403 l
1293.7088 438.893185 l
stroke
grestore
1.000 setlinewidth
0 setlinecap
gsave
1116 543.6 180 90 clipbox
/o {
gsave
newpath
translate
1.0 setlinewidth
1 setlinejoin
0 setlinecap
0 -5 m
1.326016 -5 2.597899 -4.473168 3.535534 -3.535534 c
4.473168 -2.597899 5 -1.326016 5 0 c
5 1.326016 4.473168 2.597899 3.535534 3.535534 c
2.597899 4.473168 1.326016 5 0 5 c
-1.326016 5 -2.597899 4.473168 -3.535534 3.535534 c
-4.473168 2.597899 -5 1.326016 -5 0 c
-5 -1.326016 -4.473168 -2.597899 -3.535534 -3.535534 c
-2.597899 -4.473168 -1.326016 -5 0 -5 c
cl

gsave
0.000 0.447 0.698 setrgbcolor
fill
grestore
stroke
grestore
} bind def
180 608.891 o
207.665 445.403 o
230.517 223.166 o
253.668 148.428 o
278.47 121.892 o
301.128 199.613 o
323.884 175.136 o
350.903 186.207 o
373.429 337.022 o
395.794 327.734 o
418.3 358.407 o
440.753 448.461 o
463.129 351.011 o
485.577 314.165 o
508.288 367.675 o
530.784 352.848 o
553.181 315.253 o
575.649 449.217 o
598.054 285.868 o
620.47 386.607 o
642.916 324.114 o
665.367 336.571 o
687.76 349.479 o
710.146 377.002 o
732.622 337.814 o
755.102 377.96 o
777.503 339.694 o
800.002 362.624 o
822.592 398.344 o
844.994 368.084 o
867.454 368.215 o
889.867 391.883 o
912.234 359.49 o
934.624 352.435 o
956.991 350.527 o
979.372 371.172 o
1001.81 386.859 o
1024.25 437.52 o
1046.75 425.97 o
1069.17 323.951 o
1091.68 462.078 o
1114.28 402.556 o
1136.7 457.327 o
1159.07 436.881 o
1181.47 436.645 o
1204.01 391.131 o
1226.48 374.539 o
1248.91 414.121 o
1271.32 423.712 o
1293.71 438.893 o
grestore
1.500 setlinewidth
2 setlinecap
1.000 0.000 0.000 setrgbcolor
gsave
1116 543.6 180 90 clipbox
305.5779 90 m
305.5779 633.6 l
stroke
grestore
0 setlinecap
[5.55 2.4] 0 setdash
0.000 0.000 1.000 setrgbcolor
gsave
1116 543.6 180 90 clipbox
326.521063 90 m
326.521063 633.6 l
stroke
grestore
[1.5 2.475] 0 setdash
0.000 1.000 1.000 setrgbcolor
gsave
1116 543.6 180 90 clipbox
326.529266 90 m
326.529266 633.6 l
stroke
grestore
2 setlinecap
[] 0 setdash
0.000 0.502 0.000 setrgbcolor
gsave
1116 543.6 180 90 clipbox

stroke
grestore
0.000 0.392 0.000 setrgbcolor
gsave
1116 543.6 180 90 clipbox

stroke
grestore
0.800 setlinewidth
0 setlinejoin
[] 0 setdash
0.000 setgray
gsave
180 90 m
180 633.6 l
stroke
grestore
gsave
1296 90 m
1296 633.6 l
stroke
grestore
gsave
180 90 m
1296 90 l
stroke
grestore
gsave
180 633.6 m
1296 633.6 l
stroke
grestore
1.000 setlinewidth
0 setlinecap
0.800 setgray
gsave
1094.546875 443.521875 m
1282 443.521875 l
1284.666667 443.521875 1286 444.855208 1286 447.521875 c
1286 619.6 l
1286 622.266667 1284.666667 623.6 1282 623.6 c
1094.546875 623.6 l
1091.880208 623.6 1090.546875 622.266667 1090.546875 619.6 c
1090.546875 447.521875 l
1090.546875 444.855208 1091.880208 443.521875 1094.546875 443.521875 c
cl
gsave
1.000 setgray
fill
grestore
stroke
grestore
0.000 setgray
/DejaVuSans-Bold findfont
17.280 scalefont
setfont
gsave
1150.500000 602.475000 translate
0.000000 rotate
0.000000 0.000000 m /V glyphshow
13.346680 0.000000 m /e glyphshow
25.056610 0.000000 m /r glyphshow
33.571396 0.000000 m /t glyphshow
41.824829 0.000000 m /i glyphshow
47.743027 0.000000 m /c glyphshow
57.977631 0.000000 m /a glyphshow
69.628555 0.000000 m /l glyphshow
grestore
1.500 setlinewidth
1 setlinejoin
2 setlinecap
[] 0 setdash
1.000 0.000 0.000 setrgbcolor
gsave
1098.546875 580.678125 m
1138.546875 580.678125 l
stroke
grestore
0.000 setgray
/DejaVuSans findfont
20.000 scalefont
setfont
gsave
1154.546875 573.678125 translate
0.000000 rotate
0.000000 0.000000 m /D glyphshow
15.400391 0.000000 m /e glyphshow
27.705078 0.000000 m /t glyphshow
35.546875 0.000000 m /e glyphshow
47.851562 0.000000 m /c glyphshow
58.847656 0.000000 m /t glyphshow
grestore
0 setlinecap
[5.55 2.4] 0 setdash
0.000 0.000 1.000 setrgbcolor
gsave
1098.546875 551.31875 m
1138.546875 551.31875 l
stroke
grestore
0.000 setgray
gsave
1154.546875 544.318750 translate
0.000000 rotate
0.000000 0.000000 m /I glyphshow
5.898438 0.000000 m /m glyphshow
25.380859 0.000000 m /p glyphshow
38.076172 0.000000 m /l glyphshow
43.632812 0.000000 m /e glyphshow
55.937500 0.000000 m /m glyphshow
75.419922 0.000000 m /e glyphshow
87.724609 0.000000 m /n glyphshow
100.400391 0.000000 m /t glyphshow
108.242188 0.000000 m /one glyphshow
grestore
[1.5 2.475] 0 setdash
0.000 1.000 1.000 setrgbcolor
gsave
1098.546875 521.959375 m
1138.546875 521.959375 l
stroke
grestore
0.000 setgray
gsave
1154.546875 514.959375 translate
0.000000 rotate
0.000000 0.000000 m /I glyphshow
5.898438 0.000000 m /m glyphshow
25.380859 0.000000 m /p glyphshow
38.076172 0.000000 m /l glyphshow
43.632812 0.000000 m /e glyphshow
55.937500 0.000000 m /m glyphshow
75.419922 0.000000 m /e glyphshow
87.724609 0.000000 m /n glyphshow
100.400391 0.000000 m /t glyphshow
108.242188 0.000000 m /two glyphshow
grestore
2 setlinecap
[] 0 setdash
0.000 0.502 0.000 setrgbcolor
gsave
1098.546875 492.6 m
1138.546875 492.6 l
stroke
grestore
0.000 setgray
gsave
1154.546875 485.600000 translate
0.000000 rotate
0.000000 0.000000 m /R glyphshow
13.896484 0.000000 m /e glyphshow
26.201172 0.000000 m /c glyphshow
37.197266 0.000000 m /o glyphshow
49.433594 0.000000 m /v glyphshow
61.269531 0.000000 m /e glyphshow
73.574219 0.000000 m /r glyphshow
81.796875 0.000000 m /underscore glyphshow
91.796875 0.000000 m /i glyphshow
97.353516 0.000000 m /n glyphshow
110.029297 0.000000 m /i glyphshow
115.585938 0.000000 m /t glyphshow
grestore
0.000 0.392 0.000 setrgbcolor
gsave
1098.546875 462.678125 m
1138.546875 462.678125 l
stroke
grestore
0.000 setgray
gsave
1154.546875 455.678125 translate
0.000000 rotate
0.000000 0.000000 m /R glyphshow
13.896484 0.000000 m /e glyphshow
26.201172 0.000000 m /c glyphshow
37.197266 0.000000 m /o glyphshow
49.433594 0.000000 m /v glyphshow
61.269531 0.000000 m /e glyphshow
73.574219 0.000000 m /r glyphshow
grestore
1.000 setlinewidth
0 setlinejoin
0 setlinecap
[] 0 setdash
0.800 setgray
gsave
1092.890625 100 m
1282 100 l
1284.666667 100 1286 101.333333 1286 104 c
1286 247.28125 l
1286 249.947917 1284.666667 251.28125 1282 251.28125 c
1092.890625 251.28125 l
1090.223958 251.28125 1088.890625 249.947917 1088.890625 247.28125 c
1088.890625 104 l
1088.890625 101.333333 1090.223958 100 1092.890625 100 c
cl
gsave
1.000 setgray
fill
grestore
stroke
grestore
0.000 setgray
/DejaVuSans-Bold findfont
17.280 scalefont
setfont
gsave
1137.054688 230.156250 translate
0.000000 rotate
0.000000 0.000000 m /H glyphshow
14.449844 0.000000 m /o glyphshow
26.311523 0.000000 m /r glyphshow
34.826309 0.000000 m /i glyphshow
40.744507 0.000000 m /z glyphshow
50.793640 0.000000 m /o glyphshow
62.655319 0.000000 m /n glyphshow
74.946960 0.000000 m /t glyphshow
83.200394 0.000000 m /a glyphshow
94.851318 0.000000 m /l glyphshow
grestore
1.500 setlinewidth
1 setlinejoin
[5.55 2.4] 0 setdash
0.800 0.475 0.655 setrgbcolor
gsave
1096.890625 208.359375 m
1136.890625 208.359375 l
stroke
grestore
0.000 setgray
/DejaVuSans findfont
20.000 scalefont
setfont
gsave
1152.890625 201.359375 translate
0.000000 rotate
0.000000 0.000000 m /c glyphshow
10.996094 0.000000 m /p glyphshow
23.691406 0.000000 m /u glyphshow
36.367188 0.000000 m /underscore glyphshow
46.367188 0.000000 m /t glyphshow
54.208984 0.000000 m /h glyphshow
66.884766 0.000000 m /r glyphshow
75.107422 0.000000 m /e glyphshow
87.412109 0.000000 m /s glyphshow
97.832031 0.000000 m /h glyphshow
grestore
0.000 0.447 0.698 setrgbcolor
gsave
1096.890625 178.4375 m
1136.890625 178.4375 l
stroke
grestore
0.000 setgray
gsave
1152.890625 171.437500 translate
0.000000 rotate
0.000000 0.000000 m /s glyphshow
10.419922 0.000000 m /a glyphshow
22.675781 0.000000 m /l glyphshow
28.232422 0.000000 m /e glyphshow
40.537109 0.000000 m /s glyphshow
50.957031 0.000000 m /underscore glyphshow
60.957031 0.000000 m /t glyphshow
68.798828 0.000000 m /h glyphshow
81.474609 0.000000 m /r glyphshow
89.697266 0.000000 m /e glyphshow
102.001953 0.000000 m /s glyphshow
112.421875 0.000000 m /h glyphshow
grestore
2 setlinecap
[] 0 setdash
0.800 0.475 0.655 setrgbcolor
gsave
1096.890625 148.515625 m
1136.890625 148.515625 l
stroke
grestore
1.000 setlinewidth
0 setlinejoin
0 setlinecap
gsave
/o {
gsave
newpath
translate
1.0 setlinewidth
0 setlinejoin
0 setlinecap
-0 -5 m
5 5 l
-5 5 l
cl

gsave
0.800 0.475 0.655 setrgbcolor
fill
grestore
stroke
grestore
} bind def
1116.89 148.516 o
grestore
0.000 setgray
gsave
1152.890625 141.515625 translate
0.000000 rotate
0.000000 0.000000 m /c glyphshow
10.996094 0.000000 m /p glyphshow
23.691406 0.000000 m /u glyphshow
grestore
1.500 setlinewidth
1 setlinejoin
2 setlinecap
0.000 0.447 0.698 setrgbcolor
gsave
1096.890625 119.15625 m
1136.890625 119.15625 l
stroke
grestore
1.000 setlinewidth
0 setlinecap
gsave
/o {
gsave
newpath
translate
1.0 setlinewidth
1 setlinejoin
0 setlinecap
0 -5 m
1.326016 -5 2.597899 -4.473168 3.535534 -3.535534 c
4.473168 -2.597899 5 -1.326016 5 0 c
5 1.326016 4.473168 2.597899 3.535534 3.535534 c
2.597899 4.473168 1.326016 5 0 5 c
-1.326016 5 -2.597899 4.473168 -3.535534 3.535534 c
-4.473168 2.597899 -5 1.326016 -5 0 c
-5 -1.326016 -4.473168 -2.597899 -3.535534 -3.535534 c
-2.597899 -4.473168 -1.326016 -5 0 -5 c
cl

gsave
0.000 0.447 0.698 setrgbcolor
fill
grestore
stroke
grestore
} bind def
1116.89 119.156 o
grestore
0.000 setgray
gsave
1152.890625 112.156250 translate
0.000000 rotate
0.000000 0.000000 m /s glyphshow
10.419922 0.000000 m /a glyphshow
22.675781 0.000000 m /l glyphshow
28.232422 0.000000 m /e glyphshow
40.537109 0.000000 m /s glyphshow
grestore

end
showpage
