\relax 
\providecommand\hyper@newdestlabel[2]{}
\@setckpt{results/output_data/tbl_efficiency}{
\setcounter{page}{17}
\setcounter{equation}{1}
\setcounter{enumi}{0}
\setcounter{enumii}{0}
\setcounter{enumiii}{0}
\setcounter{enumiv}{0}
\setcounter{footnote}{3}
\setcounter{mpfootnote}{0}
\setcounter{part}{0}
\setcounter{section}{7}
\setcounter{subsection}{0}
\setcounter{subsubsection}{0}
\setcounter{paragraph}{0}
\setcounter{subparagraph}{0}
\setcounter{figure}{12}
\setcounter{table}{6}
\setcounter{tnote}{0}
\setcounter{fnote}{0}
\setcounter{cnote}{0}
\setcounter{ead}{6}
\setcounter{author}{0}
\setcounter{affn}{1}
\setcounter{NAT@ctr}{0}
\setcounter{float@type}{4}
\setcounter{subfigure}{0}
\setcounter{lofdepth}{1}
\setcounter{subtable}{0}
\setcounter{lotdepth}{1}
\setcounter{parentequation}{0}
\setcounter{Item}{0}
\setcounter{Hfootnote}{3}
\setcounter{Hy@AnnotLevel}{0}
\setcounter{bookmark@seq@number}{21}
\setcounter{section@level}{1}
}
